HW4/simulation/qsim/HW4.msim.vcd
$comment
	File created using the following command:
		vcd file HW4.msim.vcd -direction
$end
$date
	Thu Jan 05 21:46:13 2023
$end
$version
	ModelSim Version 10.1d
$end
$timescale
	1ps
$end
$scope module ALU_vlg_vec_tst $end
$var reg 8 ! a [7:0] $end
$var reg 8 " b [7:0] $end
$var reg 4 # Op [3:0] $end
$var wire 1 $ c_out $end
$var wire 1 % overflow $end
$var wire 1 & result [7] $end
$var wire 1 ' result [6] $end
$var wire 1 ( result [5] $end
$var wire 1 ) result [4] $end
$var wire 1 * result [3] $end
$var wire 1 + result [2] $end
$var wire 1 , result [1] $end
$var wire 1 - result [0] $end
$var wire 1 . zero $end
$var wire 1 / sampler $end
$scope module i1 $end
$var wire 1 0 gnd $end
$var wire 1 1 vcc $end
$var wire 1 2 unknown $end
$var tri1 1 3 devclrn $end
$var tri1 1 4 devpor $end
$var tri1 1 5 devoe $end
$var wire 1 6 inst2|inst17|inst6~0_combout $end
$var wire 1 7 inst1|inst17|inst6~0_combout $end
$var wire 1 8 inst2|inst|inst5~0_combout $end
$var wire 1 9 inst3|inst|inst5~0_combout $end
$var wire 1 : inst5|inst18|inst6~1_combout $end
$var wire 1 ; inst4|inst18|inst6~0_combout $end
$var wire 1 < a[6]~input_o $end
$var wire 1 = b[6]~input_o $end
$var wire 1 > a[5]~input_o $end
$var wire 1 ? a[2]~input_o $end
$var wire 1 @ b[2]~input_o $end
$var wire 1 A b[1]~input_o $end
$var wire 1 B overflow~output_o $end
$var wire 1 C zero~output_o $end
$var wire 1 D result[7]~output_o $end
$var wire 1 E result[6]~output_o $end
$var wire 1 F result[5]~output_o $end
$var wire 1 G result[4]~output_o $end
$var wire 1 H result[3]~output_o $end
$var wire 1 I result[2]~output_o $end
$var wire 1 J result[1]~output_o $end
$var wire 1 K result[0]~output_o $end
$var wire 1 L c_out~output_o $end
$var wire 1 M b[7]~input_o $end
$var wire 1 N a[7]~input_o $end
$var wire 1 O b[5]~input_o $end
$var wire 1 P Op[2]~input_o $end
$var wire 1 Q inst6|inst17|inst6~0_combout $end
$var wire 1 R b[4]~input_o $end
$var wire 1 S inst4|inst17|inst6~0_combout $end
$var wire 1 T a[4]~input_o $end
$var wire 1 U Op[3]~input_o $end
$var wire 1 V inst4|inst|inst5~0_combout $end
$var wire 1 W inst6|inst|inst5~0_combout $end
$var wire 1 X inst5|inst17|inst6~0_combout $end
$var wire 1 Y inst5|inst|inst5~0_combout $end
$var wire 1 Z inst7|inst|inst~combout $end
$var wire 1 [ inst7|inst7~combout $end
$var wire 1 \ Op[1]~input_o $end
$var wire 1 ] inst5|inst18|inst6~0_combout $end
$var wire 1 ^ inst5|inst18|inst6~2_combout $end
$var wire 1 _ inst6|inst18|inst6~0_combout $end
$var wire 1 ` Op[0]~input_o $end
$var wire 1 a inst6|inst18|inst6~1_combout $end
$var wire 1 b inst6|inst18|inst6~2_combout $end
$var wire 1 c inst9~0_combout $end
$var wire 1 d a[0]~input_o $end
$var wire 1 e inst|inst16|inst6~0_combout $end
$var wire 1 f inst|inst18|inst6~0_combout $end
$var wire 1 g inst|inst18|inst6~1_combout $end
$var wire 1 h inst4|inst18|inst6~1_combout $end
$var wire 1 i inst4|inst18|inst6~2_combout $end
$var wire 1 j inst9~1_combout $end
$var wire 1 k inst7|inst18|inst6~0_combout $end
$var wire 1 l inst7|inst18|inst6~1_combout $end
$var wire 1 m a[1]~input_o $end
$var wire 1 n inst1|inst16|inst6~0_combout $end
$var wire 1 o b[0]~input_o $end
$var wire 1 p inst|inst17|inst6~0_combout $end
$var wire 1 q inst1|inst|inst5~0_combout $end
$var wire 1 r inst2|inst18|inst6~0_combout $end
$var wire 1 s inst2|inst18|inst6~1_combout $end
$var wire 1 t inst2|inst18|inst6~2_combout $end
$var wire 1 u inst9~combout $end
$var wire 1 v a[3]~input_o $end
$var wire 1 w inst3|inst18|inst6~0_combout $end
$var wire 1 x b[3]~input_o $end
$var wire 1 y inst3|inst17|inst6~0_combout $end
$var wire 1 z inst3|inst18|inst6~1_combout $end
$var wire 1 { inst3|inst18|inst6~2_combout $end
$var wire 1 | inst1|inst18|inst6~0_combout $end
$var wire 1 } inst1|inst18|inst6~1_combout $end
$var wire 1 ~ inst7|inst17|inst6~0_combout $end
$var wire 1 !! inst7|inst|inst5~0_combout $end
$upscope $end
$upscope $end
$enddefinitions $end
#0
$dumpvars
b1000100 !
b11101111 "
b0 #
1$
0%
0-
0,
1+
0*
0)
0(
1'
0&
0.
x/
00
11
x2
13
14
15
16
17
18
19
1:
0;
1<
1=
0>
1?
1@
1A
0B
0C
0D
1E
0F
0G
0H
1I
0J
0K
1L
1M
0N
1O
0P
1Q
0R
0S
0T
0U
0V
0W
1X
1Y
0Z
0[
0\
1]
1^
0_
0`
1a
0b
1c
0d
0e
0f
0g
0h
0i
1j
0k
0l
0m
0n
1o
1p
0q
1r
1s
1t
1u
0v
0w
1x
1y
1z
0{
1|
0}
1~
1!!
$end
#100000
b100 !
b1100 !
b1110 !
b10101111 "
b10001111 "
b10001011 "
b10001001 "
b1 #
1`
0A
0@
0O
0=
1m
1v
0<
0/
0z
1k
1f
0a
07
06
0Q
0X
1n
1w
0]
0Y
1}
0|
08
1z
0:
1Z
1J
1,
1l
1g
0!!
1D
1K
0L
1&
1-
0$
1{
0^
1H
0E
1*
0'
#200000
b101110 !
b101010 !
b1001 "
b11001 "
b10001 "
b11 #
b100010 !
b100000 !
b1010001 "
b1010101 "
b1010111 "
b10 #
0`
1\
1A
1@
0x
1R
1=
0M
0m
0?
0v
1>
1/
0z
0k
1h
1:
0w
0r
1_
1;
17
16
0y
1S
1X
0~
0n
09
0{
0t
1[
1|
0Z
0;
0H
0I
1B
0*
0+
1%
1^
1t
1b
0}
1E
1I
1F
0J
1'
1+
1(
0,
1}
0l
0[
1i
1J
0D
0B
1G
1,
0&
0%
1)
#300000
b110 #
b1100000 !
b1110111 "
b1000000 !
b1000100 !
b1001100 !
b1001110 !
1O
1m
1?
1v
0>
1<
1P
0/
1n
1r
18
1w
0_
1]
1Y
1~
1z
1y
0s
0p
0h
0X
0S
0:
07
06
0w
19
0|
0f
0Y
08
0}
0b
1!!
0i
1;
1Z
1w
0J
0F
1L
0G
0,
0(
1$
0)
1{
1}
0g
0!!
1H
1J
0K
0L
1*
1,
0-
0$
1i
1l
1[
0{
1G
1D
1B
0H
1)
1&
1%
0*
#400000
b11001110 !
b1110110 "
b110110 "
b110010 "
b111 #
b10001110 !
b10101110 !
b10101100 !
1`
0o
0@
0=
0m
1>
0<
1N
1/
1s
1k
1h
1:
1p
16
1X
0n
1_
0]
0Z
0}
0l
1g
1!!
0[
18
1a
0:
0J
0D
1K
1L
0B
0,
0&
1-
1$
0%
0t
0i
1b
0g
0w
0I
0G
1F
0K
0+
0)
1(
0-
0b
0^
0z
0c
0F
0E
0(
0'
1{
1H
1*
0{
0j
0H
0*
0u
1C
1.
#500000
b10111100 !
b1111 #
b1101 #
b110000 "
b10000 "
b10111000 !
b111000 !
b10001 "
b1010001 "
b1010101 "
b1100 #
b111010 !
1o
0A
1@
0O
1=
0`
0\
1U
1m
0?
1T
0N
0/
0p
17
0s
06
1Q
0X
1z
0h
0_
1]
0;
1e
1Y
1l
1{
1t
1i
1b
1^
1|
08
0Y
1Z
1u
1j
1c
1D
1H
1I
1G
1F
1E
1&
1*
1+
1)
1(
1'
0t
0b
0^
0{
0i
09
0Z
0c
0C
0I
0F
0E
0H
0G
0.
0+
0(
0'
0*
0)
1[
0j
1B
1%
0[
0B
0%
#600000
b1000 #
b110010 !
b1110010 !
b1100010 !
b0 #
b1010111 "
b11100010 !
b1010110 "
b10110 "
0o
1A
0=
0v
0T
1<
1N
0P
0U
1/
0~
0z
0y
1s
1h
0a
1S
0Q
16
0r
1n
0e
1_
1W
0k
1Z
0W
1q
1Y
0!!
1}
0Y
18
0Z
1c
0L
1J
0$
1,
0l
1!!
1Z
1j
0u
0D
1L
0&
1$
0!!
1u
1C
0L
1.
0$
0C
0.
#700000
b11100011 !
b10010110 "
b10000110 "
b10001110 "
b11000011 !
b10101110 "
b11000111 !
b11010111 !
b10101100 "
b1010111 !
b10101101 "
b11101101 "
1o
0A
1x
0R
1O
1=
1M
1d
1?
1T
0>
0N
0/
1p
07
1z
1y
0h
0S
1a
1Q
1X
1:
1~
1e
1r
1V
1;
0_
0Z
0|
1f
19
0V
1W
1Y
1Z
1^
1t
1V
0W
0Z
1E
1I
1'
1+
0}
1g
1!!
1W
0J
1K
1L
0,
1-
1$
#800000
b11101001 "
b1011111 !
b11111 !
b111111 !
b101111 !
b11101011 "
b10101111 !
b10101011 "
1v
0T
1>
0<
1N
1A
0@
0=
1/
1w
0V
0;
1_
0]
1k
1Z
17
0s
06
0X
0:
1[
1|
0Y
1B
1%
1{
1b
0^
1l
0[
0t
0Z
1H
1F
0E
1D
0B
0I
1*
1(
0'
1&
0%
0+
1}
1J
1,
1[
1B
1%
#900000
b10101110 !
b101011 "
b10101010 !
b101010 "
b101110 "
b10100010 !
b11100010 !
b11000010 !
b101100 "
0o
0A
1@
0M
0d
0?
0v
0>
1<
0/
0p
07
1s
16
0~
0e
0r
08
0w
0_
0W
1]
1Y
0[
0|
0q
0f
18
0k
09
0Y
0B
0%
0{
0b
08
19
1Z
0H
0F
0*
0(
0}
0g
0l
0!!
09
0c
0J
0K
0D
0L
0,
0-
0&
0$
0j
0u
1C
1.
